Item Code	Barcode	Item Chinese Name	Item English Name	Chinese Description	English Description	Category Code	Sub-category Code	Group Code	Building Code	Location Code	Sub-location Code	Funding Source Code	Ownership	Variance Manager	Quantity	Supplier	Supplier Contact	Supplier Description	Quotation No	Tender No	Invoice No	Purchase Date	Total Purchase Amount	Unit Price	Maintanence Details	Remarks	Stocktake Option	Tags
DESK_02003	DESK02003	個人書桌 02003	Personal Desk 02003	一年級用個人書桌	Primary 1 Personal desks	GEN	HW	GEN	MB	F1	RM110	QEF	1	COM	10	IKEA	2014-0023(Mr.Lee)	Located In Causeway Bay	Q00023	T00024	I000053	14/4/2008	500	100	Call Hotline(2650-4499)	Use for music room	N	
DESK_02004	DESK02004	個人書桌 02004	Personal Desk 02004	高年級用個人書桌	Upper Grades Personal desks	GEN	HW	GEN	MB	F1	RM110	QEF	2	COM	30	IKEA	2014-0023(Mr.Lee)	Located In Causeway Bay	Q00023	T00024	I000053	14/4/2008	500	400	Call Hotline(2650-4499)	Use for art room	Y	"高年級, 枱, tablE"
