"EnglishTitle"	"ChineseTitle"	"Type"	"Length"	"Sample1"	"Sample2"	"Sample3"
"Class Name"	"(班別)"	"str"		"F1A"		
"Class Number"	"(班號)"	"str"		1		
"User Login"	"(內聯網帳號)"	"str"			"student1"	
"WebSAMSRegNo"	"(WebSAMS 註冊號碼)"	"str"				"#012345"
"Student Name [Ref]"	"(學生姓名) [參考用途]"	"str"		"Wong Siu Ming"	"Chan Siu Man"	
"ECA Title"	"(活動名稱)"	"str"		"Girl Guides"	"School Choir"	
"Position"	"(位置)"	"str"		"Chairman"	"Member"	
"Performance"	"(表現)"	"str"		"Very Good"	"Excellent"	
