EnglishTitle	ChineseTitle	Type	Length	Sample1	Sample2	Sample3
Class Name	(班別)	str		F1A		
Class Number	(班號)	str		1		
User Login	(內聯網帳號)	str			student1	
WebSAMSRegNo	(WebSAMS 註冊號碼)	str				#012345
Student Name [Ref]	(學生姓名) [參考用途]	str		Wong Siu Ming	Chan Siu Man	
Credits	(積點)	num		1	0	
Merits	(優點)	num		10	0	
Misdemeanors	(缺點)	num		0	3	
Minor Misdeeds	(小過)	num		0	5	
Major Misdeeds	(大過)	num		0	2	
