|||Revised Field||||||
Book ID|Book name|New Book name|Publisher|Author|Category|SubCategory|ISBN|Edition|Summary
1279|花樣校園||青桐社||||||
875|花樣校園||青桐社||||||
897|仍未確認||青桐社||||||
899|心靈花園1 讓自己快樂一些||青源出版社||||||
900|心靈花園2 做自己的主人||青源出版社||||||
901|心靈花園3 每天都是好日子||青源出版社||||||
902|心靈花園4 幸福就在你身邊||青源出版社||||||
903|心靈花園6 朋友，有你多好||青源出版社||||||
904|我的天空就是你的心||青馬文化||||||
907|浮游幽靈事件||青藍出版社||||||
911|大俠黑旋 Phone||青桐社||||||
913|塔羅女王的千里眼||青馬文化||||||
915|待續回憶1：戀人之前 道別以後||青馬文化||||||
918|自轉生活1：《有夢的人贏盡人生》||青源出版社||||||
919|自轉生活2：《為自己奮鬥》||青源出版社||||||
932|自轉生活3：《成功之門自己打開》||青源出版社||||||
935|自轉生活4：《好想說聲我愛你》||青源出版社||||||
1863|老外都讚的正宗英語||青桐社||||||
1864|奮進少年1──愛裡共飛翔||青桐社||||||
1865|港孩心語2──爸媽，快來救我！||青桐社||||||
1866|讀不出的盼望||青桐社||||||
1874|心靈花園8-說出來感覺真好||青源出版社||||||
1875|心靈花園7-誰說不可以||青源出版社||||||
1876|求愛狗仔囉囉戀||青春文化||||||
1877|狗仔Hi的奇幻之旅||青春文化||||||
1878|草莓田之吻||青藍出版社||||||
1879|葵花海之約||青藍出版社||||||
1880|透明的彩虹盡頭||青藍出版社||||||
1881|小藍帽的黑森林||青藍出版社||||||
1882|青草莓之淚||青藍出版社||||||
1883|幸福味的薑餅屋||青藍出版社||||||
1884|流淚的守護星||青藍出版社||||||
1885|偷走時間的信差||青藍出版社||||||
1886|雲端的綠茶泡泡||青藍出版社||||||
1887|糖果雨中的邂逅||青藍出版社||||||
1888|待續回憶外傳 其實我從沒離開你||青馬文化||||||
1889|突然而來的戀愛預感||青馬文化||||||
1890|假使，我能代他愛你||青馬文化||||||
1891|現在，還來得及愛你嗎?||青馬文化||||||
1892|心中的話留待再見才說||青馬文化||||||
1893|月季忘記了||青馬文化||||||
1894|我以為，我不夠愛你||青馬文化||||||
1895|約定在世界終結時||青馬文化||||||
1896|別說，愛不起||青馬文化||||||
1897|說好了，要比我幸福||青馬文化||||||
1898|請讓我繼續守護你||青馬文化||||||
1899|待續回憶3-直到愛情不再年輕||青馬文化||||||
1900|待續回憶2- 唯獨愛你難以忘懷||青馬文化||||||
1901|英語近義詞辨析小辭典||青桐社||||||
1905|依池瀨湊大熊貓||青桐社||||||
1914|奮進少年2 ─ 天父，請?給我一對手||青桐社||||||
1104|心靈花園5：《愛裡沒懼怕》||青源出版社||||||
