UserLogin,Password,UserEmail,EnglishName,FirstName,LastName,ChineseName,Title,Gender,Mobile,ClassNumber,ClassName,CardID,DOB,WebSAMSRegNo,STRN
peteru,a,peter@xyz.com,Peter Wong,Peter,Wong,王小明,Mr.,M,91203544,1,4A,0028927792,1988-01-23,#110186,888888
maryu,aa,marychan@aaa.com,Mary Chan,Mary,Chan,陳小麗,Miss,F,95687412,2,4A,0028925394,1990-01-24,#1012348,999999
supermanu,b,superman@ccc.com,Ho Chiu Yan,Chiu Yan,Ho,何釗仁,Mr.,M,95566321,1,4B,0028929038,1991-10-09,#9322102,444444
amyu,bb,amykwok@amykwok.com,Amy Kwok,Amy,Kwok,郭美鳳,Ms,F,98756412,2,4B,0008573912,1993-10-22,111111
