"EnglishTitle","ChineseTitle","Type","Length","Sample1","Sample2"
"REGNO","","str","","#012345","#032345"
"Absent (days)","","num","","0","2"
"Late (times)","","num","","1","0"
"Leave early (times)","","num","","1","1"