EnglishTitle	ChineseTitle	Type	Length	Sample1	Sample2	Sample3
Class Name	(班別)	str		F1A		
Class Number	(班號)	str		1		
User Login	(內聯網帳號)	str			student1	
WebSAMSRegNo	(WebSAMS 註冊號碼)	str				#012345
Student Name [Ref]	(學生姓名) [參考用途]	str		Wong Siu Ming	Chan Siu Man	
MP	(MP)	char		X	0	
MU	(MU)	char			0	
MH	(MH)	char		0		X
Demerits	(缺點)	num		4	0	2
MECA	(MECA)	char		MECA		X
GCA	(GCA)	char		X	GCA	
