ClubName(EN)	Term	ClassName	ClassNumber	Role	Performance	Achievement	Comment	Active/Inactive	AdminRole
Reading Club	Term 1	1A	6	Member	Good	Certificate of award	Active participation	Active	PIC
Choir	Term 2	5B	12	Chairman	Unsatisfactory		Always Late	Inactive	HELPER
