"ClubName","ClassName","ClassNumber","Role","Performance","Comment","Active/Inactive"
"Reading Club","1A",6,"Member","Good","Active participation","Active"
"Choir","5B",12,"Chairman","Unsatisfactory","Always Late","Inactive"
