"Mathematics","English","English","English","Chinese","Physics","Chinese"
"Mathematics","English","Chinese","Physics","Chinese","Mathematics","Mathematics"
"English","Mathematics","Chinese","Biology","Mathematics","Chin. History","Physics"
"Physics","Mathematics","Mathematics","Chin. History","Chemistry","Chemistry","Biology"
"Physics","Chinese","Mathematics","Chemistry","Chemistry","English","English"
"Chinese","I.S.","Chin. History","Mathematics","English","English","Econ"
"History","I.S.","Biology","I.S.","I.S.","Econ","I.S."
"Chin. History","History","Biology","Chinese","History","Biology","History"
"P.E.","Chin. History","History","Econ","Art","Assembly","Home Econ"
"P.E.","Chemistry","Chemistry","Econ","Art","Assembly","Home Econ"
"","","","","","",""
"","","","","","",""
