EnglishTitle	ChineseTitle	Type	Length	Sample1	Sample2	Sample3
Class Name	(班別)	str		F1A		
Class Number	(班號)	str		1		
User Login	(內聯網帳號)	str			student1	
WebSAMSRegNo	(WebSAMS 註冊號碼)	str				#012345
Student Name [Ref]	(學生姓名) [參考用途]	str		Wong Siu Ming	Chan Siu Man	
Initiative Grade	(主動性等級)	grade		G	E	S
Initiative Comment	(主動性評語)	str		Shows initiative consistently.		
Collaboration with Others Grade	(合作性等級)	grade		G	S	G
Collaboration with Others Comment	(合作性評語)	str		Often collaborate with others.		
Sense of Responsibility Grade	(責任感等級)	grade		G	S	E
Sense of Responsibility Comment	(責任感評語)	str		Have a good sense of responsibility.		
Self-management Grade	(自我管理等級)	grade		G	G	N
Self-management Comment	(自我管理評語)	str		Shows good self-management consistently.		
Respect for Others Grade	(尊重別人等級)	grade		G	N	E
Respect for Others Comment	(尊重別人評語)	str		Often respect for others.		
Problem Solving Grade	(問題解決等級)	grade		G	N	S
Problem Solving Comment	(問題解決評語)	str		Solves problems independently.		
