REG NO.	SCHOOL YEAR	TERM	CLASS	CLASS NO	STUDENT CHN NAME	Academic	Conduct	CommentChi	CommentEng
141A01	2014	1	1A	1	陳大文	B+	B	好	good
141A02	2014	1	1A	2	李小子	C	D	幾好	quite good
141A03	2014	1	1A	3	高大威	A-	C-	很好	very good
