"EnglishTitle","ChineseTitle","Type","Length","Sample1","Sample2"
"REGNO","","str","","#012345","#032345"
"Merits & Demerit","獎懲","str","","優點乙個","優點兩個"
"Reasons","原因","str","","全年交齊功課","熱心服務、校際音樂表現突出"