CODE_ID	EN_DES	ReasonType
01	Interval between dropout and readmission	1
02	Reason unknown	1
03	Sick leave	1
04	Bad weather	1
05	Parent's application	1
06	Truancy	1
07	Suspension	1
08	Other reason (waived record)	1
09	Other reason	1
01	Reason unknown	2
02	Traffic jam	2
03	Wake up late	2
04	Private affair	2
09	Malfunction of alarm clock	2
01	Reason unknown	3
02	External activities	3
03	Parent's application	3
04	Sickness	3
05	Other reason (waived record)	3
06	Other reason	3
