"EnglishTitle","ChineseTitle","Type","Length","Sample1","Sample2"
"REGNO","","str","","#012345","#032345"
"Total Number of School Days","","num","","150","150"
"Days Absent","缺席日數","num","","2","0"
"Time Late","遲到次數","num","","5","1"