"UserLogin"	"Password"	"UserEmail"	"EnglishName"	"ChineseName"	"NickName"	"Gender"	"Mobile"	"Fax"	"Barcode"	"Remarks"	"TitleEnglish"	"TitleChinese"	"WebSAMSStaffCode"
"peter"	"a"	"peter@xyz.com"	"Peter Wong"	"王小明"	"PeterW"	"M"	91203544				"Principal"	"校長"	
"mary"	"aa"	"marychan@aaa.com"	"Mary Chan"	"陳小麗"	"Mary"	"F"	95687412						"s101"
"john"	"aaa"	"johnlee@bbb.com"	"John Lee"	"李志文"	"John"	"M"	98565444						
"superman"	"b"	"superman@ccc.com"	"Ho Chiu Yan"	"何釗仁"	"YanYan"	"M"	95566321						
"amy"	"bb"	"amykwok@amykwok.com"	"Amy Kwok"	"郭美鳳"	"AMKwok"	"F"	98756412						
