"UserLogin"	"Password"	"UserEmail"	"EnglishName"	"ChineseName"	"NickName"	"Gender"	"Mobile"	"Fax"	"Barcode"	"Remarks"	"DOB"	"WebSAMSRegNo"	"HKJApplNo"	"CardID"	"HKID"	"STRN"	"Nationality"	"PlaceOfBirth"	"AdmissionDate"
"peteru"	"a"	"peter@ccy.com"	"Peter Wong"	"王小明"	"PeterW"	"M"	91203544				1988-01-23	"#1101861"	40000401	287792	"A4123456(7)"	65498765
"maryu"	"aa"	"marychan@yahoo.com"	"Mary Chan"	"陳小麗"	"Mary"	"F"	95687412				1990-01-24	"#1012342"	40000402	25394	"B1723456(7)"	54312159
"supermanu"	"b"	"superman@hotmail.com"	"Ho Chiu Yan"	"何釗仁"	"YanYan"	"M"	95566321				1991-10-09	"#9322107"	40000403	289038	"C1234586(7)"	89120540
"amyu"	"bb"	"amykwok@amy-kwok.com"	"Amy Kwok"	"郭美鳳"	"AMKwok"	"F"	98756412				1993-10-22	"#321456"	40000404	853912	"D123056(7)"	50456480
