"UserLogin"	"Password"	"UserEmail"	"EnglishName"	"FirstName"	"LastName"	"ChineseName"	"Title"	"Gender"	"Mobile"	"Barcode"	"DOB"	"WebSAMSRegNo"	"HKID"	"Nationality"	"PlaceOfBirth"	"AdmissionDate"
"peteru"	"a"	"peter@xyz.com"	"Peter Wong"	"Peter"	"Wong"	"王小明"	"Mr."	"M"	91203544		"1988-01-23"	"#110186"	"A123456(7)"	"Chinese"	"Hong Kong"	"1992-09-01"
"maryu"	"aa"	"marychan@aaa.com"	"Mary Chan"	"Mary"	"Chan"	"陳小麗"	"Miss"	"F"	95687412		"1990-01-24"	"#1012348"	"B123456(7)"			
"supermanu"	"b"	"superman@ccc.com"	"Ho Chiu Yan"	"Chiu Yan"	"Ho"	"何釗仁"	"Mr."	"M"	95566321		"1991-10-09"	"#9322102"	"C123456(7)"	"Croatian"		
"amyu"	"bb"	"amykwok@amykwok.com"	"Amy Kwok"	"Amy"	"Kwok"	"郭美鳳"	"Ms"	"F"	98756412		"1993-10-22"	"D123456(7)"			"Columbia"	"1998-12-25"
