UserLogin,Password,UserEmail,EnglishName,FirstName,LastName,ChineseName,Title,Gender,Mobile,ClassNumber,ClassName,YearOfLeft
peter,a,peter@xyz.com,Peter Wong,Peter,Wong,王小明,Mr.,M,91203544,1,4A,2004
mary,aa,marychan@aaa.com,Mary Chan,Mary,Chan,陳小麗,Miss,F,95687412,2,4A,2005
john,aaa,johnlee@bbb.com,John Lee,John,Lee,李志文,Mr.,M,98565444,3,4A,2001
superman,b,superman@ccc.com,Ho Chiu Yan,Chiu Yan,Ho,何釗仁,Mr.,M,95566321,1,4B,2002
amy,bb,amykwok@amykwok.com,Amy Kwok,Amy,Kwok,郭美鳳,Ms,F,98756412,2,4B,2004
