UserLogin	Password	UserEmail	EnglishName	ChineseName	Gender	Home Tel	Mobile	Fax	Remarks	Address
peteru	a	peter@zxyz.com	Peter Wong	王小明	M	39133000	91203544			"Flat 25, 12/F, Acacia Building, 150 Kennedy Road, WAN CHAI, HONG KONG"
maryu	aa	marychan@yahoo.com	Mary Chan	陳小麗	F	39133000	95687412			
supermanu	b	superman@hotmail.com	Ho Chiu Yan	何釗仁	M	39133000	95566321			
amyu	bb	amykwok@amy-kwok.com	Amy Kwok	郭美鳳	F	39133000	98756412			
