班別	班號	開學時年齡(歲)	開學時年齡(月)	開學時體重	開學時體高	散學時年齡(歲)	散學時年齡(月)	散學時體重	散學時體高	本學期授課日數	學生上課日數	病假日數	事假日數	遲到日數	早退日數	獎項	特錄
Class Name	Class Number	Start age (Year)	Start age (Month)	Start weight	Start Height	End age (Year)	End age (Month)	End weight	End Height	School Days	Present Days	Sick Leave Days	Other Leave Days	Late Days	Early Leave Days	Award	Remarks
1A	1	4	1	16.1	105.2	4	5	17.3	106.8	90	85	5	0	1	1		
