"EnglishTitle"	"ChineseTitle"	"Type"	"Length"	"Sample1"	"Sample2"	"Sample3"
"Class Name"	"(班別)"	"str"		"F1A"		
"Class Number"	"(班號)"	"str"		1		
"User Login"	"(內聯網帳號)"	"str"			"student1"	
"WebSAMSRegNo"	"(WebSAMS 註冊號碼)"	"str"				"#012345"
"Student Name [Ref]"	"(學生姓名) [參考用途]"	"str"		"Wong Siu Ming"	"Chan Siu Man"	
"Days Absent"	"(缺席日數)"	"num"		2	0	
"Times Late"	"(遲到次數)"	"num"		5	1	
