"Type"	"Content"
"(類別)"	"(內容)"
"SSO"	"ID_SSO"	"SSO"	"Selection Option 1"	"SSO"	"Selection Option 2"	"SSO"	"Selection Option 3"
"MSO"	"ID_MSO"	"MSO"	"Multiple Selection Option 1"	"MSO"	"Multiple Selection Option 2"	"MSO"	"Multiple Selection Option 3"
"SCO"	"ID_SCO"	"SCO"	"Single Checkbox 1"	"SCO"	"Single Checkbox 2"	"SCO"	"Single Checkbox 3"
"MCO"	"ID_MCO"	"MCO"	"Multiple Checkbox 1"	"MCO"	"Multiple Checkbox 2"	"MCO"	"Multiple Checkbox 3"
"HT"	"Row 1 Column 1 Header Text"	"HT"	"Row 1 Column 2 Header Text"	"HT"	"Row 1 Column 3 Header Text"	"HT"	"Row 1 Column 4 Header Text"	"HT"	"Row 1 Column 5 Header Text"	"HT"	"Row 1 Column 6 Header Text"	"HT"	"Row 1 Column 7 Header Text"
"DT"	"Row 2 Column 1 Display Text"	"DT"	"Row 2 Column 2 Display Text"	"DT"	"Row 2 Column 3 Display Text"	"DT"	"Row 2 Column 4 Display Text"	"DT"	"Row 2 Column 5 Display Text"	"DT"	"Row 2 Column 6 Display Text"	"DT"	"Row 2 Column 7 Display Text"
"DT"	"Row 3 Column 1"	"ST"	"Short Text"	"LT"	"Long Text"	"SS"	"ID_SSO"	"MS"	"ID_MSO"	"SC"	"ID_SCO"	"MC"	"ID_MCO"