EnglishTitle	ChineseTitle	Type	Length	Sample1	Sample2	Sample3
Class Name	(班別)	str		F1A		
Class Number	(班號)	str		1		
User Login	(內聯網帳號)	str			student1	
WebSAMSRegNo	(WebSAMS 註冊號碼)	str				#012345
Student Name [Ref]	(學生姓名) [參考用途]	str		Wong Siu Ming	Chan Siu Man	
Appearance	(儀容)	str		A	A+	
Mood	(情緒)	str		B	A+	
Courtesy	(禮貌)	str		B	B	
Gregarious	(合群)	str		U	B	
Discipline	(紀律)	str		B	B	
Honesty	(誠實)	str		A	F	
Service	(服務)	str		A	F	
AppearanceOverall	(整體表現)	str		A	C	
AppearanceOverallYear	(全學年整體表現)	str		A	A+	
