UserLogin	NAME	TYPE	CONTENT
cwy	Chan Wai Yin	ClassAndSubject	"3A 中國語文(3L+1s)"
cwy	Chan Wai Yin	ClassAndSubject	"3A 口語溝通-a組(1s)"
cwy	Chan Wai Yin	ClassAndSubject	"3A 普通話(1s)"
cwy	Chan Wai Yin	ClassAndSubject	"3B 中國語文(3L+1s)"
cwy	Chan Wai Yin	ClassAndSubject	"3B 普通話(1s)"
cwy	Chan Wai Yin	ClassAndSubject	"4C 中國語文(2L+3s)"
lkw	Lee Kwok Wai	ClassAndSubject	4A AFT
lkw	Lee Kwok Wai	ClassAndSubject	"3B L & S(1s)"
lkw	Lee Kwok Wai	ClassAndSubject	"3B Civics(1s)"
lkw	Lee Kwok Wai	ClassAndSubject	"4A 聖經[綠組](1s)"
lkw	Lee Kwok Wai	ClassAndSubject	"4B 聖經[綠組](1s)"
lkw	Lee Kwok Wai	ClassAndSubject	"4C 聖經[綠組](1s)"
lkw	Lee Kwok Wai	ClassAndSubject	"5B 聖經[綠組](1s)"
lkw	Lee Kwok Wai	ClassAndSubject	"5C 聖經[綠組](1s)"
lkw	Lee Kwok Wai	ClassAndSubject	"3E Business(1s)"
lkw	Lee Kwok Wai	ClassAndSubject	"4A BAFS(B M) [EL1](1L+3s)"
lkw	Lee Kwok Wai	ClassAndSubject	"5B BAFS(B M) [EL2 ](1L+3s)"
lkw	Lee Kwok Wai	ClassAndSubject	"6C BAFS(B M) [EL3](2L+2s)"
