Particulars,Date,Student Name,Class,AdmissionDropOutReason,WithdrawalProspect,Remark
Admission,1/1/2019,陳小明,1/1/2019,Referal,N.A.,Here is for remark
Withdrawal,15/1/2019,王小明,15/1/2019,N.A.,Discipline,Here is for remark
